{
  "project_info": {
    "project_number": "521882229528",
    "project_id": "integrate-fcm-and-hsm",
    "storage_bucket": "integrate-fcm-and-hsm.appspot.com"
  },
  "client": [
    {
      "client_info": {
        "mobilesdk_app_id": "1:521882229528:android:b5f8d25390229a6b051c6d",
        "android_client_info": {
          "package_name": "com.example.implementation_gsm_hsm"
        }
      },
      "oauth_client": [
        {
          "client_id": "521882229528-bb8n5knd7bpu1qshcc19bm45sqlluv0t.apps.googleusercontent.com",
          "client_type": 3
        }
      ],
      "api_key": [
        {
          "current_key": "AIzaSyAYBjHeHSzyTd0oqbVZ687gXRczZ8HRxO0"
        }
      ],
      "services": {
        "appinvite_service": {
          "other_platform_oauth_client": [
            {
              "client_id": "521882229528-bb8n5knd7bpu1qshcc19bm45sqlluv0t.apps.googleusercontent.com",
              "client_type": 3
            }
          ]
        }
      }
    },
    {
      "client_info": {
        "mobilesdk_app_id": "1:521882229528:android:0612e49c8c7253db051c6d",
        "android_client_info": {
          "package_name": "com.example.implementation_gsm_hsm.dev"
        }
      },
      "oauth_client": [
        {
          "client_id": "521882229528-bb8n5knd7bpu1qshcc19bm45sqlluv0t.apps.googleusercontent.com",
          "client_type": 3
        }
      ],
      "api_key": [
        {
          "current_key": "AIzaSyAYBjHeHSzyTd0oqbVZ687gXRczZ8HRxO0"
        }
      ],
      "services": {
        "appinvite_service": {
          "other_platform_oauth_client": [
            {
              "client_id": "521882229528-bb8n5knd7bpu1qshcc19bm45sqlluv0t.apps.googleusercontent.com",
              "client_type": 3
            }
          ]
        }
      }
    },
    {
      "client_info": {
        "mobilesdk_app_id": "1:521882229528:android:328f8bde8b5c2145051c6d",
        "android_client_info": {
          "package_name": "com.example.implementation_gsm_hsm.lab"
        }
      },
      "oauth_client": [
        {
          "client_id": "521882229528-bb8n5knd7bpu1qshcc19bm45sqlluv0t.apps.googleusercontent.com",
          "client_type": 3
        }
      ],
      "api_key": [
        {
          "current_key": "AIzaSyAYBjHeHSzyTd0oqbVZ687gXRczZ8HRxO0"
        }
      ],
      "services": {
        "appinvite_service": {
          "other_platform_oauth_client": [
            {
              "client_id": "521882229528-bb8n5knd7bpu1qshcc19bm45sqlluv0t.apps.googleusercontent.com",
              "client_type": 3
            }
          ]
        }
      }
    }
  ],
  "configuration_version": "1"
}